snn/sv/passing.vcd
$version Generated by VerilatedVcd $end
$timescale 1ps $end
 $scope module neural_network_tb $end
  $var wire 1 S clk $end
  $var wire 1 0 reset $end
  $var wire 1 1 start $end
  $var wire 2 2 inputs [1:0] $end
  $var wire 1 > done $end
  $var wire 8 ? spike_count [7:0] $end
  $var wire 32 3 test_num [31:0] $end
  $var wire 32 4 cycle_count [31:0] $end
  $scope module dut $end
   $var wire 32 X NUM_TIMESTEPS [31:0] $end
   $var wire 1 S clk $end
   $var wire 1 0 reset $end
   $var wire 1 1 start $end
   $var wire 2 2 inputs [1:0] $end
   $var wire 1 > done $end
   $var wire 8 ? spike_count [7:0] $end
   $var wire 2 @ state [1:0] $end
   $var wire 2 5 next_state [1:0] $end
   $var wire 5 A timestep_counter [4:0] $end
   $var wire 8 # hidden_weights[0][0] [7:0] $end
   $var wire 8 $ hidden_weights[0][1] [7:0] $end
   $var wire 8 % hidden_weights[1][0] [7:0] $end
   $var wire 8 & hidden_weights[1][1] [7:0] $end
   $var wire 8 ' hidden_biases[0] [7:0] $end
   $var wire 8 ( hidden_biases[1] [7:0] $end
   $var wire 8 ) output_weights[0] [7:0] $end
   $var wire 8 * output_weights[1] [7:0] $end
   $var wire 8 + output_bias[0] [7:0] $end
   $var wire 8 , hidden_w0_temp[0] [7:0] $end
   $var wire 8 - hidden_w0_temp[1] [7:0] $end
   $var wire 8 . hidden_w1_temp[0] [7:0] $end
   $var wire 8 / hidden_w1_temp[1] [7:0] $end
   $var wire 1 B hidden_spike[0] $end
   $var wire 1 C hidden_spike[1] $end
   $var wire 8 T hidden_current[0] [7:0] $end
   $var wire 8 U hidden_current[1] [7:0] $end
   $var wire 1 D output_spike $end
   $var wire 8 E output_current [7:0] $end
   $var wire 1 F enable $end
   $scope module hidden_lif_0 $end
    $var wire 32 Y THRESHOLD [31:0] $end
    $var wire 32 Z BETA [31:0] $end
    $var wire 32 [ REFRACTORY_PERIOD [31:0] $end
    $var wire 1 S clk $end
    $var wire 1 0 reset $end
    $var wire 1 F enable $end
    $var wire 8 V current [7:0] $end
    $var wire 1 G spike $end
    $var wire 16 H membrane_potential [15:0] $end
    $var wire 4 I refractory_counter [3:0] $end
    $var wire 16 6 next_membrane [15:0] $end
    $var wire 16 7 current_extended [15:0] $end
    $var wire 16 8 decay_potential [15:0] $end
    $var wire 24 9 decay_temp [23:0] $end
   $upscope $end
   $scope module hidden_lif_1 $end
    $var wire 32 Y THRESHOLD [31:0] $end
    $var wire 32 Z BETA [31:0] $end
    $var wire 32 [ REFRACTORY_PERIOD [31:0] $end
    $var wire 1 S clk $end
    $var wire 1 0 reset $end
    $var wire 1 F enable $end
    $var wire 8 W current [7:0] $end
    $var wire 1 J spike $end
    $var wire 16 K membrane_potential [15:0] $end
    $var wire 4 L refractory_counter [3:0] $end
    $var wire 16 : next_membrane [15:0] $end
    $var wire 16 ; current_extended [15:0] $end
    $var wire 16 < decay_potential [15:0] $end
    $var wire 24 = decay_temp [23:0] $end
   $upscope $end
   $scope module output_lif $end
    $var wire 32 Y THRESHOLD [31:0] $end
    $var wire 32 Z BETA [31:0] $end
    $var wire 32 [ REFRACTORY_PERIOD [31:0] $end
    $var wire 1 S clk $end
    $var wire 1 0 reset $end
    $var wire 1 F enable $end
    $var wire 8 E current [7:0] $end
    $var wire 1 D spike $end
    $var wire 16 M membrane_potential [15:0] $end
    $var wire 4 N refractory_counter [3:0] $end
    $var wire 16 O next_membrane [15:0] $end
    $var wire 16 P current_extended [15:0] $end
    $var wire 16 Q decay_potential [15:0] $end
    $var wire 24 R decay_temp [23:0] $end
   $upscope $end
   $scope module unnamedblk1 $end
    $var wire 32 \ i [31:0] $end
   $upscope $end
  $upscope $end
 $upscope $end
$enddefinitions $end


#0
b00100001 #
b11100100 $
b11101001 %
b00101100 &
b00100100 '
b00110010 (
b01000011 )
b00110010 *
b00010010 +
b00100001 ,
b11100100 -
b11101001 .
b00101100 /
10
01
b00 2
b00000000000000000000000000000000 3
b00000000000000000000000000000000 4
b00 5
b0000000000100100 6
b0000000000100100 7
b0000000000000000 8
b000000000000000000000000 9
b0000000000110010 :
b0000000000110010 ;
b0000000000000000 <
b000000000000000000000000 =
0>
b00000000 ?
b00 @
b00000 A
0B
0C
0D
b00010010 E
0F
0G
b0000000000000000 H
b0000 I
0J
b0000000000000000 K
b0000 L
b0000000000000000 M
b0000 N
b0000000000010010 O
b0000000000010010 P
b0000000000000000 Q
b000000000000000000000000 R
0S
b00100100 T
b00110010 U
b00100100 V
b00110010 W
b00000000000000000000000000001100 X
b00000000000000000000000001100100 Y
b00000000000000000000000001000000 Z
b00000000000000000000000000000000 [
b00000000000000000000000000000010 \
#5000
1S
#10000
0S
#15000
1S
#20000
0S
#25000
1S
#30000
0S
#35000
1S
#40000
0S
#45000
00
1S
#50000
0S
#55000
1S
#60000
0S
#65000
b00000000000000000000000000000001 3
1S
#70000
0S
#75000
11
b01 5
b01 @
1F
1S
#80000
0S
#85000
01
b0000000000110110 6
b0000000000010010 8
b000000000000100100000000 9
b0000000001001011 :
b0000000000011001 <
b000000000000110010000000 =
b00001 A
b0000000000100100 H
b0000000000110010 K
b0000000000010010 M
b0000000000011011 O
b0000000000001001 Q
b000000000000010010000000 R
1S
#90000
0S
#95000
b00000000000000000000000000000001 4
b0000000000111111 6
b0000000000011011 8
b000000000000110110000000 9
b0000000001010111 :
b0000000000100101 <
b000000000001001011000000 =
b00010 A
b0000000000110110 H
b0000000001001011 K
b0000000000011011 M
b0000000000011111 O
b0000000000001101 Q
b000000000000011011000000 R
1S
#100000
0S
#105000
b00000000000000000000000000000010 4
b0000000001000011 6
b0000000000011111 8
b000000000000111111000000 9
b0000000001011101 :
b0000000000101011 <
b000000000001010111000000 =
b00011 A
b0000000000111111 H
b0000000001010111 K
b0000000000011111 M
b0000000000100001 O
b0000000000001111 Q
b000000000000011111000000 R
1S
#110000
0S
#115000
b00000000000000000000000000000011 4
b0000000001000101 6
b0000000000100001 8
b000000000001000011000000 9
b0000000001100000 :
b0000000000101110 <
b000000000001011101000000 =
b00100 A
b0000000001000011 H
b0000000001011101 K
b0000000000100001 M
b0000000000100010 O
b0000000000010000 Q
b000000000000100001000000 R
1S
#120000
0S
#125000
b00000000000000000000000000000100 4
b0000000001000110 6
b0000000000100010 8
b000000000001000101000000 9
b0000000001100010 :
b0000000000110000 <
b000000000001100000000000 =
b00101 A
b0000000001000101 H
b0000000001100000 K
b0000000000100010 M
b0000000000100011 O
b0000000000010001 Q
b000000000000100010000000 R
1S
#130000
0S
#135000
b00000000000000000000000000000101 4
b0000000001000111 6
b0000000000100011 8
b000000000001000110000000 9
b0000000001100011 :
b0000000000110001 <
b000000000001100010000000 =
b00110 A
b0000000001000110 H
b0000000001100010 K
b0000000000100011 M
b000000000000100011000000 R
1S
#140000
0S
#145000
b00000000000000000000000000000110 4
b000000000001000111000000 9
b000000000001100011000000 =
b00111 A
b0000000001000111 H
b0000000001100011 K
1S
#150000
0S
#155000
b00000000000000000000000000000111 4
b01000 A
1S
#160000
0S
#165000
b00000000000000000000000000001000 4
b01001 A
1S
#170000
0S
#175000
b00000000000000000000000000001001 4
b01010 A
1S
#180000
0S
#185000
b00000000000000000000000000001010 4
b10 5
b01011 A
1S
#190000
0S
#195000
b00000000000000000000000000001011 4
1>
b10 @
b01100 A
0F
1S
#200000
0S
#205000
10
b00000000000000000000000000001100 4
b00 5
b0000000000100100 6
b0000000000000000 8
b000000000000000000000000 9
b0000000000110010 :
b0000000000000000 <
b000000000000000000000000 =
0>
b00 @
b00000 A
b0000000000000000 H
b0000000000000000 K
b0000000000000000 M
b0000000000010010 O
b0000000000000000 Q
b000000000000000000000000 R
1S
#210000
0S
#215000
1S
#220000
0S
#225000
1S
#230000
0S
#235000
1S
#240000
0S
#245000
1S
#250000
0S
#255000
00
1S
#260000
0S
#265000
1S
#270000
0S
#275000
b10 2
b00000000000000000000000000000010 3
b0000000000001000 6
b0000000000001000 7
b0000000001011110 :
b0000000001011110 ;
1S
b00001000 T
b01011110 U
b00001000 V
b01011110 W
#280000
0S
#285000
11
b01 5
b01 @
1F
1S
#290000
0S
#295000
01
b00000000000000000000000000000000 4
b0000000000001100 6
b0000000000000100 8
b000000000000001000000000 9
b0000000010001101 :
b0000000000101111 <
b000000000001011110000000 =
b00001 A
b0000000000001000 H
b0000000001011110 K
b0000000000010010 M
b0000000000011011 O
b0000000000001001 Q
b000000000000010010000000 R
1S
#300000
0S
#305000
b00000000000000000000000000000001 4
b0000000000001110 6
b0000000000000110 8
b000000000000001100000000 9
b0000000001011011 :
b1111111111111101 <
b111111111111111010000000 =
b00010 A
1C
b01000100 E
b0000000000001100 H
1J
b1111111111111010 K
b0000000000011011 M
b0000000001010001 O
b0000000001000100 P
b0000000000001101 Q
b000000000000011011000000 R
1S
#310000
0S
#315000
b00000000000000000000000000000010 4
b0000000000001111 6
b0000000000000111 8
b000000000000001110000000 9
b0000000010001011 :
b0000000000101101 <
b000000000001011011000000 =
b00011 A
0C
b00010010 E
b0000000000001110 H
0J
b0000000001011011 K
b0000000001010001 M
b0000000000111010 O
b0000000000010010 P
b0000000000101000 Q
b000000000001010001000000 R
1S
#320000
0S
#325000
b00000000000000000000000000000011 4
b000000000000001111000000 9
b0000000001011001 :
b1111111111111011 <
b111111111111110111000000 =
b00100 A
1C
b01000100 E
b0000000000001111 H
1J
b1111111111110111 K
b0000000000111010 M
b0000000001100001 O
b0000000001000100 P
b0000000000011101 Q
b000000000000111010000000 R
1S
#330000
0S
#335000
b00000000000000000000000000000100 4
b0000000010001010 :
b0000000000101100 <
b000000000001011001000000 =
b00101 A
0C
b00010010 E
0J
b0000000001011001 K
b0000000001100001 M
b0000000001000010 O
b0000000000010010 P
b0000000000110000 Q
b000000000001100001000000 R
1S
#340000
0S
#345000
b00000000000000000000000000000101 4
b0000000001011000 :
b1111111111111010 <
b111111111111110101000000 =
b00110 A
1C
b01000100 E
1J
b1111111111110101 K
b0000000001000010 M
b0000000001100101 O
b0000000001000100 P
b0000000000100001 Q
b000000000001000010000000 R
1S
#350000
0S
#355000
b00000000000000000000000000000110 4
b0000000010001010 :
b0000000000101100 <
b000000000001011000000000 =
b00111 A
0C
1D
b00010010 E
0J
b0000000001011000 K
b1111111111011110 M
b0000000000000001 O
b0000000000010010 P
b1111111111101111 Q
b111111111111011110000000 R
1S
#360000
0S
#365000
b00000000000000000000000000000111 4
b0000000001011000 :
b1111111111111010 <
b111111111111110100000000 =
b00000001 ?
b01000 A
1C
0D
b01000100 E
1J
b1111111111110100 K
b0000000000000001 M
b0000000001000100 O
b0000000001000100 P
b0000000000000000 Q
b000000000000000001000000 R
1S
#370000
0S
#375000
b00000000000000000000000000001000 4
b0000000010001010 :
b0000000000101100 <
b000000000001011000000000 =
b01001 A
0C
b00010010 E
0J
b0000000001011000 K
b0000000001000100 M
b0000000000110100 O
b0000000000010010 P
b0000000000100010 Q
b000000000001000100000000 R
1S
#380000
0S
#385000
b00000000000000000000000000001001 4
b0000000001011000 :
b1111111111111010 <
b111111111111110100000000 =
b01010 A
1C
b01000100 E
1J
b1111111111110100 K
b0000000000110100 M
b0000000001011110 O
b0000000001000100 P
b0000000000011010 Q
b000000000000110100000000 R
1S
#390000
0S
#395000
b00000000000000000000000000001010 4
b10 5
b0000000010001010 :
b0000000000101100 <
b000000000001011000000000 =
b01011 A
0C
b00010010 E
0J
b0000000001011000 K
b0000000001011110 M
b0000000001000001 O
b0000000000010010 P
b0000000000101111 Q
b000000000001011110000000 R
1S
#400000
0S
#405000
b00000000000000000000000000001011 4
b0000000001011000 :
b1111111111111010 <
b111111111111110100000000 =
1>
b10 @
b01100 A
1C
b01000100 E
0F
1J
b1111111111110100 K
b0000000001000001 M
b0000000001100100 O
b0000000001000100 P
b0000000000100000 Q
b000000000001000001000000 R
1S
#410000
0S
#415000
10
b00000000000000000000000000001100 4
b00 5
b0000000000001000 6
b0000000000000000 8
b000000000000000000000000 9
b0000000001011110 :
b0000000000000000 <
b000000000000000000000000 =
0>
b00000000 ?
b00 @
b00000 A
0C
b00010010 E
b0000000000000000 H
0J
b0000000000000000 K
b0000000000000000 M
b0000000000010010 O
b0000000000010010 P
b0000000000000000 Q
b000000000000000000000000 R
1S
#420000
0S
#425000
1S
#430000
0S
#435000
1S
#440000
0S
#445000
1S
#450000
0S
#455000
1S
#460000
0S
#465000
00
1S
#470000
0S
#475000
1S
#480000
0S
#485000
b01 2
b00000000000000000000000000000011 3
b0000000001000101 6
b0000000001000101 7
b0000000000011011 :
b0000000000011011 ;
1S
b01000101 T
b00011011 U
b01000101 V
b00011011 W
#490000
0S
#495000
11
b01 5
b01 @
1F
1S
#500000
0S
#505000
01
b00000000000000000000000000000000 4
b0000000001100111 6
b0000000000100010 8
b000000000001000101000000 9
b0000000000101000 :
b0000000000001101 <
b000000000000011011000000 =
b00001 A
b0000000001000101 H
b0000000000011011 K
b0000000000010010 M
b0000000000011011 O
b0000000000001001 Q
b000000000000010010000000 R
1S
#510000
0S
#515000
b00000000000000000000000000000001 4
b0000000000110101 6
b1111111111110000 8
b111111111111100001000000 9
b0000000000101111 :
b0000000000010100 <
b000000000000101000000000 =
b00010 A
1B
b01010101 E
1G
b1111111111100001 H
b0000000000101000 K
b0000000000011011 M
b0000000001100010 O
b0000000001010101 P
b0000000000001101 Q
b000000000000011011000000 R
1S
#520000
0S
#525000
b00000000000000000000000000000010 4
b0000000001011111 6
b0000000000011010 8
b000000000000110101000000 9
b0000000000110010 :
b0000000000010111 <
b000000000000101111000000 =
b00011 A
0B
b00010010 E
0G
b0000000000110101 H
b0000000000101111 K
b0000000001100010 M
b0000000001000011 O
b0000000000010010 P
b0000000000110001 Q
b000000000001100010000000 R
1S
#530000
0S
#535000
b00000000000000000000000000000011 4
b0000000001110100 6
b0000000000101111 8
b000000000001011111000000 9
b0000000000110100 :
b0000000000011001 <
b000000000000110010000000 =
b00100 A
b0000000001011111 H
b0000000000110010 K
b0000000001000011 M
b0000000000110011 O
b0000000000100001 Q
b000000000001000011000000 R
1S
#540000
0S
#545000
b00000000000000000000000000000100 4
b0000000001000010 6
b1111111111111101 8
b111111111111111011000000 9
b0000000000110101 :
b0000000000011010 <
b000000000000110100000000 =
b00101 A
1B
b01010101 E
1G
b1111111111111011 H
b0000000000110100 K
b0000000000110011 M
b0000000001101110 O
b0000000001010101 P
b0000000000011001 Q
b000000000000110011000000 R
1S
#550000
0S
#555000
b00000000000000000000000000000101 4
b0000000001100110 6
b0000000000100001 8
b000000000001000010000000 9
b000000000000110101000000 =
b00110 A
0B
1D
b00010010 E
0G
b0000000001000010 H
b0000000000110101 K
b1111111111001111 M
b1111111111111001 O
b0000000000010010 P
b1111111111100111 Q
b111111111111001111000000 R
1S
#560000
0S
#565000
b00000000000000000000000000000110 4
b0000000000110100 6
b1111111111101111 8
b111111111111011110000000 9
b00000001 ?
b00111 A
1B
0D
b01010101 E
1G
b1111111111011110 H
b1111111111111001 M
b0000000001010001 O
b0000000001010101 P
b1111111111111100 Q
b111111111111111001000000 R
1S
#570000
0S
#575000
b00000000000000000000000000000111 4
b0000000001011111 6
b0000000000011010 8
b000000000000110100000000 9
b01000 A
0B
b00010010 E
0G
b0000000000110100 H
b0000000001010001 M
b0000000000111010 O
b0000000000010010 P
b0000000000101000 Q
b000000000001010001000000 R
1S
#580000
0S
#585000
b00000000000000000000000000001000 4
b0000000001110100 6
b0000000000101111 8
b000000000001011111000000 9
b01001 A
b0000000001011111 H
b0000000000111010 M
b0000000000101111 O
b0000000000011101 Q
b000000000000111010000000 R
1S
#590000
0S
#595000
b00000000000000000000000000001001 4
b0000000001000010 6
b1111111111111101 8
b111111111111111011000000 9
b01010 A
1B
b01010101 E
1G
b1111111111111011 H
b0000000000101111 M
b0000000001101100 O
b0000000001010101 P
b0000000000010111 Q
b000000000000101111000000 R
1S
#600000
0S
#605000
b00000000000000000000000000001010 4
b10 5
b0000000001100110 6
b0000000000100001 8
b000000000001000010000000 9
b01011 A
0B
1D
b00010010 E
0G
b0000000001000010 H
b1111111111001011 M
b1111111111110111 O
b0000000000010010 P
b1111111111100101 Q
b111111111111001011000000 R
1S
#610000
0S
#615000
b00000000000000000000000000001011 4
b0000000000110100 6
b1111111111101111 8
b111111111111011110000000 9
1>
b00000010 ?
b10 @
b01100 A
1B
0D
b01010101 E
0F
1G
b1111111111011110 H
b1111111111110111 M
b0000000001010000 O
b0000000001010101 P
b1111111111111011 Q
b111111111111110111000000 R
1S
#620000
0S
#625000
10
b00000000000000000000000000001100 4
b00 5
b0000000001000101 6
b0000000000000000 8
b000000000000000000000000 9
b0000000000011011 :
b0000000000000000 <
b000000000000000000000000 =
0>
b00000000 ?
b00 @
b00000 A
0B
b00010010 E
0G
b0000000000000000 H
b0000000000000000 K
b0000000000000000 M
b0000000000010010 O
b0000000000010010 P
b0000000000000000 Q
b000000000000000000000000 R
1S
#630000
0S
#635000
1S
#640000
0S
#645000
1S
#650000
0S
#655000
1S
#660000
0S
#665000
1S
#670000
0S
#675000
00
1S
#680000
0S
#685000
1S
#690000
0S
#695000
b11 2
b00000000000000000000000000000100 3
b0000000000101001 6
b0000000000101001 7
b0000000001000111 :
b0000000001000111 ;
1S
b00101001 T
b01000111 U
b00101001 V
b01000111 W
#700000
0S
#705000
11
b01 5
b01 @
1F
1S
#710000
0S
#715000
01
b00000000000000000000000000000000 4
b0000000000111101 6
b0000000000010100 8
b000000000000101001000000 9
b0000000001101010 :
b0000000000100011 <
b000000000001000111000000 =
b00001 A
b0000000000101001 H
b0000000001000111 K
b0000000000010010 M
b0000000000011011 O
b0000000000001001 Q
b000000000000010010000000 R
1S
#720000
0S
#725000
b00000000000000000000000000000001 4
b0000000001000111 6
b0000000000011110 8
b000000000000111101000000 9
b0000000000111000 :
b1111111111110001 <
b111111111111100011000000 =
b00010 A
1C
b01000100 E
b0000000000111101 H
1J
b1111111111100011 K
b0000000000011011 M
b0000000001010001 O
b0000000001000100 P
b0000000000001101 Q
b000000000000011011000000 R
1S
#730000
0S
#735000
b00000000000000000000000000000010 4
b0000000001001100 6
b0000000000100011 8
b000000000001000111000000 9
b0000000001100011 :
b0000000000011100 <
b000000000000111000000000 =
b00011 A
0C
b00010010 E
b0000000001000111 H
0J
b0000000000111000 K
b0000000001010001 M
b0000000000111010 O
b0000000000010010 P
b0000000000101000 Q
b000000000001010001000000 R
1S
#740000
0S
#745000
b00000000000000000000000000000011 4
b0000000001001111 6
b0000000000100110 8
b000000000001001100000000 9
b0000000001111000 :
b0000000000110001 <
b000000000001100011000000 =
b00100 A
b0000000001001100 H
b0000000001100011 K
b0000000000111010 M
b0000000000101111 O
b0000000000011101 Q
b000000000000111010000000 R
1S
#750000
0S
#755000
b00000000000000000000000000000100 4
b0000000001010000 6
b0000000000100111 8
b000000000001001111000000 9
b0000000001000110 :
b1111111111111111 <
b111111111111111111000000 =
b00101 A
1C
b01000100 E
b0000000001001111 H
1J
b1111111111111111 K
b0000000000101111 M
b0000000001011011 O
b0000000001000100 P
b0000000000010111 Q
b000000000000101111000000 R
1S
#760000
0S
#765000
b00000000000000000000000000000101 4
b0000000001010001 6
b0000000000101000 8
b000000000001010000000000 9
b0000000001101010 :
b0000000000100011 <
b000000000001000110000000 =
b00110 A
0C
b00010010 E
b0000000001010000 H
0J
b0000000001000110 K
b0000000001011011 M
b0000000000111111 O
b0000000000010010 P
b0000000000101101 Q
b000000000001011011000000 R
1S
#770000
0S
#775000
b00000000000000000000000000000110 4
b000000000001010001000000 9
b0000000000111000 :
b1111111111110001 <
b111111111111100010000000 =
b00111 A
1C
b01000100 E
b0000000001010001 H
1J
b1111111111100010 K
b0000000000111111 M
b0000000001100011 O
b0000000001000100 P
b0000000000011111 Q
b000000000000111111000000 R
1S
#780000
0S
#785000
b00000000000000000000000000000111 4
b0000000001100011 :
b0000000000011100 <
b000000000000111000000000 =
b01000 A
0C
b00010010 E
0J
b0000000000111000 K
b0000000001100011 M
b0000000001000011 O
b0000000000010010 P
b0000000000110001 Q
b000000000001100011000000 R
1S
#790000
0S
#795000
b00000000000000000000000000001000 4
b0000000001111000 :
b0000000000110001 <
b000000000001100011000000 =
b01001 A
b0000000001100011 K
b0000000001000011 M
b0000000000110011 O
b0000000000100001 Q
b000000000001000011000000 R
1S
#800000
0S
#805000
b00000000000000000000000000001001 4
b0000000001000110 :
b1111111111111111 <
b111111111111111111000000 =
b01010 A
1C
b01000100 E
1J
b1111111111111111 K
b0000000000110011 M
b0000000001011101 O
b0000000001000100 P
b0000000000011001 Q
b000000000000110011000000 R
1S
#810000
0S
#815000
b00000000000000000000000000001010 4
b10 5
b0000000001101010 :
b0000000000100011 <
b000000000001000110000000 =
b01011 A
0C
b00010010 E
0J
b0000000001000110 K
b0000000001011101 M
b0000000001000000 O
b0000000000010010 P
b0000000000101110 Q
b000000000001011101000000 R
1S
#820000
0S
#825000
b00000000000000000000000000001011 4
b0000000000111000 :
b1111111111110001 <
b111111111111100010000000 =
1>
b10 @
b01100 A
1C
b01000100 E
0F
1J
b1111111111100010 K
b0000000001000000 M
b0000000001100100 O
b0000000001000100 P
b0000000000100000 Q
b000000000001000000000000 R
1S
#830000
0S
#835000
10
b00000000000000000000000000001100 4
b00 5
b0000000000101001 6
b0000000000000000 8
b000000000000000000000000 9
b0000000001000111 :
b0000000000000000 <
b000000000000000000000000 =
0>
b00 @
b00000 A
0C
b00010010 E
b0000000000000000 H
0J
b0000000000000000 K
b0000000000000000 M
b0000000000010010 O
b0000000000010010 P
b0000000000000000 Q
b000000000000000000000000 R
1S
#840000
0S
#845000
1S
#850000
0S
#855000
1S
#860000
0S
#865000
1S
#870000
0S
#875000
1S
#880000
0S
#885000
00
1S
